"BehaviorSpace results (NetLogo 6.0.2)"
"Lattice-Walking Turtles Example.nlogo"
"evacuation two team by radius visibility"
"12/04/2017 11:58:53:409 +0100"
"min-pxcor","max-pxcor","min-pycor","max-pycor"
"0","25","0","25"
"[run number]","two-team?","visible-radius","show-view?","visible-angle","[step]","time-red-evacuation","time-blue-evacuation"
"1","true","1","false","180","4325","4324","1680"
"2","true","1","false","180","5033","2731","5032"
"3","true","1","false","180","7023","3958","7022"
"4","true","1","false","180","2415","2414","2302"
"5","true","1","false","180","3003","3002","2869"
"6","true","2","false","180","559","558","318"
"7","true","2","false","180","977","976","225"
"8","true","2","false","180","673","541","672"
"9","true","2","false","180","487","486","455"
"10","true","2","false","180","680","679","292"
"11","true","4","false","180","377","376","261"
"12","true","4","false","180","364","363","347"
"13","true","4","false","180","418","417","227"
"14","true","4","false","180","404","403","164"
"15","true","4","false","180","291","290","240"
"16","true","8","false","180","102","100","101"
"17","true","8","false","180","161","160","94"
"18","true","8","false","180","102","101","90"
"19","true","8","false","180","110","109","53"
"20","true","8","false","180","107","106","84"
