"BehaviorSpace results (NetLogo 6.0.2)"
"communication 3.nlogo"
"count tick by meeting"
"10/23/2017 01:17:41:445 +0200"
"min-pxcor","max-pxcor","min-pycor","max-pycor"
"-16","16","-16","16"
"[run number]","number-of-persons","count-of-meeting","[step]","count turtles with [ color = red ]","count turtles with [ color = green ]","ticks"
"1","1000","1","21","368","632","21"
"2","1000","2","55","22","978","55"
"3","1000","3","150","999","1","150"
"4","1000","4","336","997","3","336"
"5","1000","5","602","3","997","602"
"6","1000","6","934","11","989","934"
"7","1000","7","1094","1","999","1094"
"8","1000","8","1945","995","5","1945"
"9","1000","9","3029","998","2","3029"
"10","1000","10","2623","1","999","2623"
