"BehaviorSpace results (NetLogo 6.0.2)"
"communication.nlogo"
"count ticks by initial red"
"10/23/2017 01:05:15:180 +0200"
"min-pxcor","max-pxcor","min-pycor","max-pycor"
"-16","16","-16","16"
"[run number]","number-of-persons","count-initial-red","[step]","count turtles with [ message? = true ]","ticks"
"1","1000","1","26","1000","26"
"2","1000","2","20","1000","20"
"3","1000","4","18","1000","18"
"4","1000","8","16","1000","16"
"5","1000","16","16","1000","16"
"6","1000","32","14","1000","14"
"7","1000","64","11","1000","11"
"8","1000","128","12","1000","12"
"9","1000","256","12","1000","12"
"10","1000","516","7","1000","7"
