"BehaviorSpace results (NetLogo 6.0.2)"
"Life.nlogo"
"density 100 ticks"
"10/23/2017 01:29:17:572 +0200"
"min-pxcor","max-pxcor","min-pycor","max-pycor"
"-49","50","-49","50"
"[run number]","fgcolor","initial-density","by-constant?","count-seeds","bgcolor","[step]","current-density"
"1","123","10","true","2000","79","0","0.2"
"1","123","10","true","2000","79","1","0.1969"
"1","123","10","true","2000","79","2","0.1785"
"1","123","10","true","2000","79","3","0.1825"
"1","123","10","true","2000","79","4","0.1719"
"1","123","10","true","2000","79","5","0.1705"
"1","123","10","true","2000","79","6","0.166"
"1","123","10","true","2000","79","7","0.1691"
"1","123","10","true","2000","79","8","0.1657"
"1","123","10","true","2000","79","9","0.1589"
"1","123","10","true","2000","79","10","0.1593"
"1","123","10","true","2000","79","11","0.157"
"1","123","10","true","2000","79","12","0.1606"
"1","123","10","true","2000","79","13","0.1508"
"1","123","10","true","2000","79","14","0.1504"
"1","123","10","true","2000","79","15","0.152"
"1","123","10","true","2000","79","16","0.1491"
"1","123","10","true","2000","79","17","0.1513"
"1","123","10","true","2000","79","18","0.1469"
"1","123","10","true","2000","79","19","0.147"
"1","123","10","true","2000","79","20","0.1432"
"1","123","10","true","2000","79","21","0.1413"
"1","123","10","true","2000","79","22","0.1312"
"1","123","10","true","2000","79","23","0.1365"
"1","123","10","true","2000","79","24","0.1374"
"1","123","10","true","2000","79","25","0.1326"
"1","123","10","true","2000","79","26","0.1261"
"1","123","10","true","2000","79","27","0.1223"
"1","123","10","true","2000","79","28","0.1236"
"1","123","10","true","2000","79","29","0.1262"
"1","123","10","true","2000","79","30","0.1239"
"1","123","10","true","2000","79","31","0.1191"
"1","123","10","true","2000","79","32","0.1182"
"1","123","10","true","2000","79","33","0.1258"
"1","123","10","true","2000","79","34","0.1167"
"1","123","10","true","2000","79","35","0.1269"
"1","123","10","true","2000","79","36","0.1228"
"1","123","10","true","2000","79","37","0.1292"
"1","123","10","true","2000","79","38","0.1221"
"1","123","10","true","2000","79","39","0.127"
"1","123","10","true","2000","79","40","0.1226"
"1","123","10","true","2000","79","41","0.1273"
"1","123","10","true","2000","79","42","0.1272"
"1","123","10","true","2000","79","43","0.134"
"1","123","10","true","2000","79","44","0.1299"
"1","123","10","true","2000","79","45","0.1297"
"1","123","10","true","2000","79","46","0.1272"
"1","123","10","true","2000","79","47","0.1289"
"1","123","10","true","2000","79","48","0.1295"
"1","123","10","true","2000","79","49","0.132"
"1","123","10","true","2000","79","50","0.1231"
"1","123","10","true","2000","79","51","0.1225"
"1","123","10","true","2000","79","52","0.1177"
"1","123","10","true","2000","79","53","0.1164"
"1","123","10","true","2000","79","54","0.1146"
"1","123","10","true","2000","79","55","0.1139"
"1","123","10","true","2000","79","56","0.1163"
"1","123","10","true","2000","79","57","0.1131"
"1","123","10","true","2000","79","58","0.1132"
"1","123","10","true","2000","79","59","0.1078"
"1","123","10","true","2000","79","60","0.1067"
"1","123","10","true","2000","79","61","0.1082"
"1","123","10","true","2000","79","62","0.1054"
"1","123","10","true","2000","79","63","0.1048"
"1","123","10","true","2000","79","64","0.1056"
"1","123","10","true","2000","79","65","0.1025"
"1","123","10","true","2000","79","66","0.0973"
"1","123","10","true","2000","79","67","0.1004"
"1","123","10","true","2000","79","68","0.0998"
"1","123","10","true","2000","79","69","0.1051"
"1","123","10","true","2000","79","70","0.1061"
"1","123","10","true","2000","79","71","0.1048"
"1","123","10","true","2000","79","72","0.1057"
"1","123","10","true","2000","79","73","0.1026"
"1","123","10","true","2000","79","74","0.1019"
"1","123","10","true","2000","79","75","0.1001"
"1","123","10","true","2000","79","76","0.098"
"1","123","10","true","2000","79","77","0.099"
"1","123","10","true","2000","79","78","0.0954"
"1","123","10","true","2000","79","79","0.0988"
"1","123","10","true","2000","79","80","0.1001"
"1","123","10","true","2000","79","81","0.103"
"1","123","10","true","2000","79","82","0.1003"
"1","123","10","true","2000","79","83","0.0998"
"1","123","10","true","2000","79","84","0.0976"
"1","123","10","true","2000","79","85","0.1017"
"1","123","10","true","2000","79","86","0.0959"
"1","123","10","true","2000","79","87","0.0972"
"1","123","10","true","2000","79","88","0.0953"
"1","123","10","true","2000","79","89","0.0975"
"1","123","10","true","2000","79","90","0.098"
"1","123","10","true","2000","79","91","0.0961"
"1","123","10","true","2000","79","92","0.0941"
"1","123","10","true","2000","79","93","0.0928"
"1","123","10","true","2000","79","94","0.0904"
"1","123","10","true","2000","79","95","0.0879"
"1","123","10","true","2000","79","96","0.0912"
"1","123","10","true","2000","79","97","0.0887"
"1","123","10","true","2000","79","98","0.0881"
"1","123","10","true","2000","79","99","0.0893"
"1","123","10","true","2000","79","100","0.0879"
"2","123","15","true","2000","79","0","0.2"
"2","123","15","true","2000","79","1","0.2036"
"2","123","15","true","2000","79","2","0.1846"
"2","123","15","true","2000","79","3","0.1846"
"2","123","15","true","2000","79","4","0.1814"
"2","123","15","true","2000","79","5","0.1835"
"2","123","15","true","2000","79","6","0.1823"
"2","123","15","true","2000","79","7","0.1821"
"2","123","15","true","2000","79","8","0.1758"
"2","123","15","true","2000","79","9","0.1659"
"2","123","15","true","2000","79","10","0.1634"
"2","123","15","true","2000","79","11","0.1586"
"2","123","15","true","2000","79","12","0.155"
"2","123","15","true","2000","79","13","0.1592"
"2","123","15","true","2000","79","14","0.1537"
"2","123","15","true","2000","79","15","0.1573"
"2","123","15","true","2000","79","16","0.1592"
"2","123","15","true","2000","79","17","0.1589"
"2","123","15","true","2000","79","18","0.1532"
"2","123","15","true","2000","79","19","0.1622"
"2","123","15","true","2000","79","20","0.1546"
"2","123","15","true","2000","79","21","0.1581"
"2","123","15","true","2000","79","22","0.1492"
"2","123","15","true","2000","79","23","0.1536"
"2","123","15","true","2000","79","24","0.1396"
"2","123","15","true","2000","79","25","0.1327"
"2","123","15","true","2000","79","26","0.133"
"2","123","15","true","2000","79","27","0.1327"
"2","123","15","true","2000","79","28","0.1341"
"2","123","15","true","2000","79","29","0.137"
"2","123","15","true","2000","79","30","0.1386"
"2","123","15","true","2000","79","31","0.138"
"2","123","15","true","2000","79","32","0.1313"
"2","123","15","true","2000","79","33","0.1351"
"2","123","15","true","2000","79","34","0.1298"
"2","123","15","true","2000","79","35","0.1338"
"2","123","15","true","2000","79","36","0.1296"
"2","123","15","true","2000","79","37","0.1256"
"2","123","15","true","2000","79","38","0.128"
"2","123","15","true","2000","79","39","0.1255"
"2","123","15","true","2000","79","40","0.1264"
"2","123","15","true","2000","79","41","0.1268"
"2","123","15","true","2000","79","42","0.1264"
"2","123","15","true","2000","79","43","0.1236"
"2","123","15","true","2000","79","44","0.1264"
"2","123","15","true","2000","79","45","0.1261"
"2","123","15","true","2000","79","46","0.1307"
"2","123","15","true","2000","79","47","0.1292"
"2","123","15","true","2000","79","48","0.136"
"2","123","15","true","2000","79","49","0.1224"
"2","123","15","true","2000","79","50","0.1235"
"2","123","15","true","2000","79","51","0.1253"
"2","123","15","true","2000","79","52","0.1181"
"2","123","15","true","2000","79","53","0.1221"
"2","123","15","true","2000","79","54","0.1107"
"2","123","15","true","2000","79","55","0.1102"
"2","123","15","true","2000","79","56","0.1073"
"2","123","15","true","2000","79","57","0.1081"
"2","123","15","true","2000","79","58","0.1097"
"2","123","15","true","2000","79","59","0.1105"
"2","123","15","true","2000","79","60","0.1065"
"2","123","15","true","2000","79","61","0.1024"
"2","123","15","true","2000","79","62","0.0997"
"2","123","15","true","2000","79","63","0.0975"
"2","123","15","true","2000","79","64","0.0962"
"2","123","15","true","2000","79","65","0.0941"
"2","123","15","true","2000","79","66","0.0943"
"2","123","15","true","2000","79","67","0.0922"
"2","123","15","true","2000","79","68","0.0963"
"2","123","15","true","2000","79","69","0.0913"
"2","123","15","true","2000","79","70","0.0921"
"2","123","15","true","2000","79","71","0.0916"
"2","123","15","true","2000","79","72","0.0937"
"2","123","15","true","2000","79","73","0.0921"
"2","123","15","true","2000","79","74","0.0976"
"2","123","15","true","2000","79","75","0.0949"
"2","123","15","true","2000","79","76","0.0978"
"2","123","15","true","2000","79","77","0.0962"
"2","123","15","true","2000","79","78","0.095"
"2","123","15","true","2000","79","79","0.0928"
"2","123","15","true","2000","79","80","0.0947"
"2","123","15","true","2000","79","81","0.0947"
"2","123","15","true","2000","79","82","0.0956"
"2","123","15","true","2000","79","83","0.0973"
"2","123","15","true","2000","79","84","0.0932"
"2","123","15","true","2000","79","85","0.0948"
"2","123","15","true","2000","79","86","0.0946"
"2","123","15","true","2000","79","87","0.094"
"2","123","15","true","2000","79","88","0.0951"
"2","123","15","true","2000","79","89","0.0939"
"2","123","15","true","2000","79","90","0.0966"
"2","123","15","true","2000","79","91","0.0909"
"2","123","15","true","2000","79","92","0.0904"
"2","123","15","true","2000","79","93","0.0866"
"2","123","15","true","2000","79","94","0.0861"
"2","123","15","true","2000","79","95","0.0847"
"2","123","15","true","2000","79","96","0.0832"
"2","123","15","true","2000","79","97","0.0857"
"2","123","15","true","2000","79","98","0.0916"
"2","123","15","true","2000","79","99","0.0875"
"2","123","15","true","2000","79","100","0.0888"
"3","123","20","true","2000","79","0","0.2"
"3","123","20","true","2000","79","1","0.2052"
"3","123","20","true","2000","79","2","0.1883"
"3","123","20","true","2000","79","3","0.1975"
"3","123","20","true","2000","79","4","0.1897"
"3","123","20","true","2000","79","5","0.1916"
"3","123","20","true","2000","79","6","0.1866"
"3","123","20","true","2000","79","7","0.1882"
"3","123","20","true","2000","79","8","0.1777"
"3","123","20","true","2000","79","9","0.1766"
"3","123","20","true","2000","79","10","0.173"
"3","123","20","true","2000","79","11","0.1734"
"3","123","20","true","2000","79","12","0.1639"
"3","123","20","true","2000","79","13","0.1629"
"3","123","20","true","2000","79","14","0.1674"
"3","123","20","true","2000","79","15","0.1593"
"3","123","20","true","2000","79","16","0.1549"
"3","123","20","true","2000","79","17","0.1449"
"3","123","20","true","2000","79","18","0.1558"
"3","123","20","true","2000","79","19","0.1468"
"3","123","20","true","2000","79","20","0.1491"
"3","123","20","true","2000","79","21","0.1366"
"3","123","20","true","2000","79","22","0.1373"
"3","123","20","true","2000","79","23","0.131"
"3","123","20","true","2000","79","24","0.1303"
"3","123","20","true","2000","79","25","0.1248"
"3","123","20","true","2000","79","26","0.1253"
"3","123","20","true","2000","79","27","0.1216"
"3","123","20","true","2000","79","28","0.1151"
"3","123","20","true","2000","79","29","0.1161"
"3","123","20","true","2000","79","30","0.1102"
"3","123","20","true","2000","79","31","0.1074"
"3","123","20","true","2000","79","32","0.1104"
"3","123","20","true","2000","79","33","0.112"
"3","123","20","true","2000","79","34","0.1129"
"3","123","20","true","2000","79","35","0.1114"
"3","123","20","true","2000","79","36","0.1123"
"3","123","20","true","2000","79","37","0.1067"
"3","123","20","true","2000","79","38","0.1066"
"3","123","20","true","2000","79","39","0.1059"
"3","123","20","true","2000","79","40","0.1055"
"3","123","20","true","2000","79","41","0.1008"
"3","123","20","true","2000","79","42","0.1023"
"3","123","20","true","2000","79","43","0.0983"
"3","123","20","true","2000","79","44","0.1046"
"3","123","20","true","2000","79","45","0.1012"
"3","123","20","true","2000","79","46","0.1065"
"3","123","20","true","2000","79","47","0.1057"
"3","123","20","true","2000","79","48","0.1033"
"3","123","20","true","2000","79","49","0.1073"
"3","123","20","true","2000","79","50","0.1071"
"3","123","20","true","2000","79","51","0.1051"
"3","123","20","true","2000","79","52","0.1045"
"3","123","20","true","2000","79","53","0.1019"
"3","123","20","true","2000","79","54","0.1017"
"3","123","20","true","2000","79","55","0.1018"
"3","123","20","true","2000","79","56","0.1015"
"3","123","20","true","2000","79","57","0.1025"
"3","123","20","true","2000","79","58","0.0999"
"3","123","20","true","2000","79","59","0.1029"
"3","123","20","true","2000","79","60","0.1061"
"3","123","20","true","2000","79","61","0.1053"
"3","123","20","true","2000","79","62","0.1066"
"3","123","20","true","2000","79","63","0.1037"
"3","123","20","true","2000","79","64","0.1113"
"3","123","20","true","2000","79","65","0.107"
"3","123","20","true","2000","79","66","0.1117"
"3","123","20","true","2000","79","67","0.1086"
"3","123","20","true","2000","79","68","0.1107"
"3","123","20","true","2000","79","69","0.1075"
"3","123","20","true","2000","79","70","0.1104"
"3","123","20","true","2000","79","71","0.1051"
"3","123","20","true","2000","79","72","0.1066"
"3","123","20","true","2000","79","73","0.1078"
"3","123","20","true","2000","79","74","0.1123"
"3","123","20","true","2000","79","75","0.1096"
"3","123","20","true","2000","79","76","0.1103"
"3","123","20","true","2000","79","77","0.1062"
"3","123","20","true","2000","79","78","0.1091"
"3","123","20","true","2000","79","79","0.1078"
"3","123","20","true","2000","79","80","0.104"
"3","123","20","true","2000","79","81","0.1092"
"3","123","20","true","2000","79","82","0.1053"
"3","123","20","true","2000","79","83","0.1084"
"3","123","20","true","2000","79","84","0.1061"
"3","123","20","true","2000","79","85","0.1055"
"3","123","20","true","2000","79","86","0.0989"
"3","123","20","true","2000","79","87","0.0963"
"3","123","20","true","2000","79","88","0.0982"
"3","123","20","true","2000","79","89","0.0975"
"3","123","20","true","2000","79","90","0.0988"
"3","123","20","true","2000","79","91","0.0987"
"3","123","20","true","2000","79","92","0.1"
"3","123","20","true","2000","79","93","0.0984"
"3","123","20","true","2000","79","94","0.0959"
"3","123","20","true","2000","79","95","0.0945"
"3","123","20","true","2000","79","96","0.0975"
"3","123","20","true","2000","79","97","0.0957"
"3","123","20","true","2000","79","98","0.1007"
"3","123","20","true","2000","79","99","0.0957"
"3","123","20","true","2000","79","100","0.0916"
"4","123","100","true","2000","79","0","0.2"
"4","123","100","true","2000","79","1","0.2153"
"4","123","100","true","2000","79","2","0.1808"
"4","123","100","true","2000","79","3","0.1856"
"4","123","100","true","2000","79","4","0.1682"
"4","123","100","true","2000","79","5","0.1591"
"4","123","100","true","2000","79","6","0.1549"
"4","123","100","true","2000","79","7","0.1507"
"4","123","100","true","2000","79","8","0.1542"
"4","123","100","true","2000","79","9","0.1502"
"4","123","100","true","2000","79","10","0.1529"
"4","123","100","true","2000","79","11","0.1521"
"4","123","100","true","2000","79","12","0.15"
"4","123","100","true","2000","79","13","0.1508"
"4","123","100","true","2000","79","14","0.1468"
"4","123","100","true","2000","79","15","0.1429"
"4","123","100","true","2000","79","16","0.1469"
"4","123","100","true","2000","79","17","0.1473"
"4","123","100","true","2000","79","18","0.1497"
"4","123","100","true","2000","79","19","0.1482"
"4","123","100","true","2000","79","20","0.1407"
"4","123","100","true","2000","79","21","0.1412"
"4","123","100","true","2000","79","22","0.1418"
"4","123","100","true","2000","79","23","0.1426"
"4","123","100","true","2000","79","24","0.1397"
"4","123","100","true","2000","79","25","0.137"
"4","123","100","true","2000","79","26","0.1446"
"4","123","100","true","2000","79","27","0.1372"
"4","123","100","true","2000","79","28","0.1392"
"4","123","100","true","2000","79","29","0.1422"
"4","123","100","true","2000","79","30","0.1332"
"4","123","100","true","2000","79","31","0.1333"
"4","123","100","true","2000","79","32","0.1309"
"4","123","100","true","2000","79","33","0.1305"
"4","123","100","true","2000","79","34","0.1324"
"4","123","100","true","2000","79","35","0.129"
"4","123","100","true","2000","79","36","0.1366"
"4","123","100","true","2000","79","37","0.1289"
"4","123","100","true","2000","79","38","0.142"
"4","123","100","true","2000","79","39","0.1387"
"4","123","100","true","2000","79","40","0.1313"
"4","123","100","true","2000","79","41","0.1398"
"4","123","100","true","2000","79","42","0.1341"
"4","123","100","true","2000","79","43","0.1356"
"4","123","100","true","2000","79","44","0.1342"
"4","123","100","true","2000","79","45","0.1244"
"4","123","100","true","2000","79","46","0.1262"
"4","123","100","true","2000","79","47","0.1294"
"4","123","100","true","2000","79","48","0.1238"
"4","123","100","true","2000","79","49","0.1239"
"4","123","100","true","2000","79","50","0.1221"
"4","123","100","true","2000","79","51","0.1187"
"4","123","100","true","2000","79","52","0.1128"
"4","123","100","true","2000","79","53","0.1107"
"4","123","100","true","2000","79","54","0.1158"
"4","123","100","true","2000","79","55","0.1116"
"4","123","100","true","2000","79","56","0.1111"
"4","123","100","true","2000","79","57","0.1139"
"4","123","100","true","2000","79","58","0.1119"
"4","123","100","true","2000","79","59","0.1091"
"4","123","100","true","2000","79","60","0.1072"
"4","123","100","true","2000","79","61","0.1102"
"4","123","100","true","2000","79","62","0.1091"
"4","123","100","true","2000","79","63","0.1122"
"4","123","100","true","2000","79","64","0.1101"
"4","123","100","true","2000","79","65","0.1094"
"4","123","100","true","2000","79","66","0.1062"
"4","123","100","true","2000","79","67","0.1005"
"4","123","100","true","2000","79","68","0.1008"
"4","123","100","true","2000","79","69","0.0965"
"4","123","100","true","2000","79","70","0.0975"
"4","123","100","true","2000","79","71","0.0974"
"4","123","100","true","2000","79","72","0.0948"
"4","123","100","true","2000","79","73","0.0943"
"4","123","100","true","2000","79","74","0.098"
"4","123","100","true","2000","79","75","0.0951"
"4","123","100","true","2000","79","76","0.0947"
"4","123","100","true","2000","79","77","0.0905"
"4","123","100","true","2000","79","78","0.0922"
"4","123","100","true","2000","79","79","0.088"
"4","123","100","true","2000","79","80","0.0904"
"4","123","100","true","2000","79","81","0.0886"
"4","123","100","true","2000","79","82","0.0872"
"4","123","100","true","2000","79","83","0.0865"
"4","123","100","true","2000","79","84","0.0879"
"4","123","100","true","2000","79","85","0.0843"
"4","123","100","true","2000","79","86","0.085"
"4","123","100","true","2000","79","87","0.0845"
"4","123","100","true","2000","79","88","0.086"
"4","123","100","true","2000","79","89","0.0815"
"4","123","100","true","2000","79","90","0.0831"
"4","123","100","true","2000","79","91","0.0822"
"4","123","100","true","2000","79","92","0.0793"
"4","123","100","true","2000","79","93","0.0789"
"4","123","100","true","2000","79","94","0.0782"
"4","123","100","true","2000","79","95","0.0771"
"4","123","100","true","2000","79","96","0.075"
"4","123","100","true","2000","79","97","0.0746"
"4","123","100","true","2000","79","98","0.0771"
"4","123","100","true","2000","79","99","0.0739"
"4","123","100","true","2000","79","100","0.0761"
